<?xml version="1.0" encoding="UTF-8"?>
<svg width="62px" height="62px" viewBox="0 0 62 62" version="1.1" xmlns="http://www.w3.org/2000/svg" xmlns:xlink="http://www.w3.org/1999/xlink">
    <!-- Generator: Sketch 44 (41411) - http://www.bohemiancoding.com/sketch -->
    <title>submission_icon</title>
    <desc>Created with Sketch.</desc>
    <defs></defs>
    <g id="Page-1" stroke="none" stroke-width="1" fill="none" fill-rule="evenodd">
        <g id="Portfolio" transform="translate(-1169.000000, -349.000000)" stroke="#333333">
            <g id="Right" transform="translate(360.000000, 0.000000)">
                <g id="Detail" transform="translate(290.000000, 60.000000)">
                    <g id="Medium-of-Submission" transform="translate(500.000000, 250.000000)">
                        <g id="submission_icon" transform="translate(20.000000, 40.000000)">
                            <polyline id="Path" points="46.1755686 28.354631 59.7183653 14.8118343 44.906531 0 31.5 13.406531"></polyline>
                            <path d="M48.1324519,9.13245191 L42,3" id="Path-Copy"></path>
                            <path d="M15.8824519,41.3824519 L9.75,35.25" id="Path-Copy-3"></path>
                            <path d="M47.7134341,17.7134341 L37.5,7.5" id="Path-Copy-2"></path>
                            <path d="M8.56744154,43.0674415 L5.25,39.75" id="Path-Copy-4"></path>
                            <circle id="Oval-6" cx="14.625" cy="51.375" r="1.875"></circle>
                            <polyline id="Path" points="13.5020814 31.5 0 45.0020814 14.8118343 59.8139158 28.361398 46.264352"></polyline>
                            <path d="M14.25,21.75 L40.125,47.625" id="Path-Copy-6"></path>
                            <path d="M21.75,14.25 L47.625,40.125" id="Path-Copy-7"></path>
                            <path d="M9,26.763675 L26.8131657,9" id="Path-Copy-5"></path>
                            <path d="M55.7970409,59.4882967 C56.0170179,58.409811 56.4180042,57.5803788 57,57 C57.5819958,56.4196212 58.3772758,56.0561106 59.3858401,55.9094684" id="Path-Copy-8"></path>
                            <path d="M60,60 L56.2304405,38.0996214 L20.9920397,2.86220527 C20.9920397,2.86220527 13.6902633,-4.43792094 4.97141181,4.27896017 L4.27334523,4.97686899 C-4.4455063,13.6937501 2.87721208,20.9938763 2.87721208,20.9938763 L38.0667482,56.2103551 L60,60 Z" id="Path"></path>
                            <polyline id="Path-28" points="38.25 55.875 40.125 47.25 46.125 46.125 47.625 39.75 56.25 38.25"></polyline>
                        </g>
                    </g>
                </g>
            </g>
        </g>
    </g>
</svg>