<?xml version="1.0" encoding="UTF-8"?>
<svg width="60px" height="60px" viewBox="0 0 60 60" version="1.1" xmlns="http://www.w3.org/2000/svg" xmlns:xlink="http://www.w3.org/1999/xlink">
    <!-- Generator: Sketch 44 (41411) - http://www.bohemiancoding.com/sketch -->
    <title>type_icon</title>
    <desc>Created with Sketch.</desc>
    <defs></defs>
    <g id="Page-1" stroke="none" stroke-width="1" fill="none" fill-rule="evenodd">
        <g id="Portfolio" transform="translate(-670.000000, -350.000000)" stroke="#333333">
            <g id="Right" transform="translate(360.000000, 0.000000)">
                <g id="Detail" transform="translate(290.000000, 60.000000)">
                    <g id="Design-Language" transform="translate(0.000000, 250.000000)">
                        <g id="type_icon" transform="translate(20.000000, 40.000000)">
                            <path d="M3,43 L58.5,43 C59.0522847,43 59.5,42.5522847 59.5,42 L59.5,3 C59.5,1.61928813 58.3807119,0.5 57,0.5 L3,0.5 C1.61928813,0.5 0.5,1.61928813 0.5,3 L0.5,40.5 C0.5,41.8807119 1.61928813,43 3,43 Z" id="Rectangle-8"></path>
                            <polyline id="Path-27" points="22.5 42.75 21.7490599 51 19.4994124 55.125 15.75 55.125 25.5 55.125"></polyline>
                            <path d="M57,35.5 L60,35.5" id="Path-26"></path>
                            <path d="M0,34.5 L27.75,34.5" id="Path-25"></path>
                            <path d="M52.1735635,53.75 L51.5902302,57.25 C53.6191236,57.25 53.8223304,57.25 55.3041956,57.25 L57,57.25 C57.8290256,57.25 58.6612282,57.0624452 59.5,56.6842083 L59.5,53.75 L52.1735635,53.75 Z" id="Rectangle-11"></path>
                            <path d="M40,57.25 L40,53.75 L26,53.75 L26,56.6842083 C26.8387718,57.0624452 27.6709744,57.25 28.5,57.25 L31.8270673,57.25 C35.0739215,57.25 35.2611047,57.25 39.6463637,57.25 L40,57.25 Z" id="Rectangle-11"></path>
                            <path d="M39.7497462,53.5124965 L51.75,53.5 L57.25,53.5 L57.25,34.5 C57.25,33.1192881 56.1307119,32 54.75,32 L30.75,32 C29.3692881,32 28.25,33.1192881 28.25,34.5 L28.25,53.5124965 L39.7497462,53.5124965 Z" id="Rectangle-9"></path>
                            <path d="M42,41.75 C41.0335017,41.75 40.25,42.5335017 40.25,43.5 L40.25,57.75 C40.25,58.7164983 41.0335017,59.5 42,59.5 L49.5,59.5 C50.4664983,59.5 51.25,58.7164983 51.25,57.75 L51.25,43.5 C51.25,42.5335017 50.4664983,41.75 49.5,41.75 L42,41.75 Z" id="Rectangle-10"></path>
                        </g>
                    </g>
                </g>
            </g>
        </g>
    </g>
</svg>